9_report/pu.vcd
$date
	Wed Jun 21 22:00:46 2023
$end
$version
	Icarus Verilog
$end
$timescale
	10ps
$end
$scope module test $end
$var wire 1 ! we $end
$var wire 16 " wd [15:0] $end
$var reg 1 # clk $end
$var reg 1 $ rst $end
$scope module pu $end
$var wire 1 # clk $end
$var wire 1 $ rst $end
$var wire 1 % ze $end
$var wire 1 ! we $end
$var wire 2 & wad [1:0] $end
$var wire 1 ' sg $end
$var wire 16 ( rwd [15:0] $end
$var wire 1 ) pcwe $end
$var wire 1 * pcs $end
$var wire 6 + pca [5:0] $end
$var wire 3 , op [2:0] $end
$var wire 16 - o [15:0] $end
$var wire 16 . mrd [15:0] $end
$var wire 16 / lp [15:0] $end
$var wire 2 0 liop [1:0] $end
$var wire 8 1 iv [7:0] $end
$var wire 1 2 h $end
$var wire 1 3 dstb $end
$var wire 1 4 dmwe $end
$var wire 1 5 dms $end
$var wire 1 6 ca $end
$var wire 2 7 brad [1:0] $end
$var wire 16 8 bo [15:0] $end
$var wire 16 9 b [15:0] $end
$var wire 2 : arad [1:0] $end
$var wire 16 ; ao [15:0] $end
$var wire 16 < a [15:0] $end
$scope module alu $end
$var wire 1 # clk $end
$var wire 1 $ rst $end
$var wire 16 = rr [15:0] $end
$var wire 3 > op [2:0] $end
$var wire 1 3 dstb $end
$var wire 16 ? b [15:0] $end
$var wire 16 @ a [15:0] $end
$var reg 1 6 ca $end
$var reg 17 A r [16:0] $end
$var reg 1 ' sg $end
$var reg 1 % ze $end
$upscope $end
$scope module asel $end
$var wire 16 B b [15:0] $end
$var wire 1 * s $end
$var wire 16 C a [15:0] $end
$var reg 16 D o [15:0] $end
$upscope $end
$scope module dec $end
$var wire 1 6 ca $end
$var wire 1 ' sg $end
$var wire 1 % ze $end
$var wire 16 E o [15:0] $end
$var reg 1 5 dms $end
$var reg 1 4 dmwe $end
$var reg 1 3 dstb $end
$var reg 1 F f1 $end
$var reg 1 G f2 $end
$var reg 1 2 h $end
$var reg 8 H iv [7:0] $end
$var reg 2 I liop [1:0] $end
$var reg 3 J op [2:0] $end
$var reg 1 * pcs $end
$var reg 1 ) pcwe $end
$var reg 2 K ra [1:0] $end
$var reg 2 L rb [1:0] $end
$var reg 2 M wad [1:0] $end
$var reg 1 ! we $end
$upscope $end
$scope module dmem $end
$var wire 8 N ad [7:0] $end
$var wire 1 # clk $end
$var wire 16 O rd [15:0] $end
$var wire 1 4 we $end
$var wire 16 P wd [15:0] $end
$upscope $end
$scope module dsel $end
$var wire 16 Q a [15:0] $end
$var wire 16 R b [15:0] $end
$var wire 1 5 s $end
$var reg 16 S o [15:0] $end
$upscope $end
$scope module imem $end
$var wire 6 T pc [5:0] $end
$var reg 16 U o [15:0] $end
$upscope $end
$scope module lidx $end
$var wire 8 V iv [7:0] $end
$var wire 2 W op [1:0] $end
$var wire 16 X i [15:0] $end
$var reg 16 Y o [15:0] $end
$upscope $end
$scope module pc $end
$var wire 1 # clk $end
$var wire 1 2 halt $end
$var wire 1 $ rst $end
$var wire 6 Z rwd [5:0] $end
$var wire 1 ) we $end
$var reg 6 [ pc [5:0] $end
$upscope $end
$scope module rega $end
$var wire 16 \ a [15:0] $end
$var wire 2 ] arad [1:0] $end
$var wire 16 ^ b [15:0] $end
$var wire 2 _ brad [1:0] $end
$var wire 1 # clk $end
$var wire 1 $ rst $end
$var wire 2 ` wad [1:0] $end
$var wire 16 a wd [15:0] $end
$var wire 1 ! we $end
$upscope $end
$upscope $end
$upscope $end
$enddefinitions $end
#0
$dumpvars
b0 a
b0 `
b0 _
b0 ^
b0 ]
b0 \
b0 [
b0 Z
b0 Y
b0 X
b0 W
b0 V
b0 U
b0 T
b0 S
bx R
b0 Q
b0 P
bx O
b0 N
b0 M
b0 L
b0 K
b10 J
b0 I
b0 H
1G
1F
b0 E
b0 D
b0 C
b0 B
b0 A
b0 @
b0 ?
b10 >
b0 =
b0 <
b0 ;
b0 :
b0 9
b0 8
b0 7
06
05
04
13
02
b0 1
b0 0
b0 /
bx .
b0 -
b10 ,
b0 +
0*
0)
b0 (
0'
b0 &
0%
1$
0#
b0 "
0!
$end
#500
1#
#1000
0#
#1500
1#
#2000
0#
0$
#2500
b1 Z
b1 N
b1 "
b1 (
b1 S
b1 a
b1 /
b1 =
b1 Q
b1 A
b1 8
b1 ?
b1 Y
b10 0
b10 I
b10 W
b1 1
b1 H
b1 V
1!
03
1G
1F
b1000001000000001 -
b1000001000000001 E
b1000001000000001 U
b1 B
b1 +
b1 T
b1 [
1#
#3000
0#
#3500
b0 1
b0 H
b0 V
b11 0
b11 I
b11 W
1!
1G
1F
b1 ;
b1 @
b1 D
b1000001100000000 -
b1000001100000000 E
b1000001100000000 U
b1 <
b1 C
b1 \
b1 9
b1 P
b1 X
b1 ^
b10 B
b10 +
b10 T
b10 [
1#
#4000
0#
#4500
b0 Z
b0 N
b0 "
b0 (
b0 S
b0 a
b0 /
b0 =
b0 Q
b0 A
b0 8
b0 ?
b0 Y
14
b1 0
b1 I
b1 W
0!
1G
1F
b100100000000000 -
b100100000000000 E
b100100000000000 U
b11 B
b11 +
b11 T
b11 [
1#
#5000
0#
#5500
b1 Z
b1 N
b1 "
b1 (
b1 S
b1 a
b1 /
b1 =
b1 Q
b1 A
b1 8
b1 ?
b1 Y
b1 1
b1 H
b1 V
b0 9
b0 P
b0 X
b0 ^
b1 7
b1 L
b1 _
1!
b1 &
b1 M
b1 `
04
b10 0
b10 I
b10 W
1G
1F
b1000011000000001 -
b1000011000000001 E
b1000011000000001 U
1%
b100 B
b100 +
b100 T
b100 [
bx .
bx O
bx R
1#
#6000
0#
#6500
b1000011100000000 -
b1000011100000000 E
b1000011100000000 U
b0 1
b0 H
b0 V
b11 0
b11 I
b11 W
b1 &
b1 M
b1 `
1!
b1 7
b1 L
b1 _
1G
1F
b101 B
b101 +
b101 T
b101 [
0%
b1 9
b1 P
b1 X
b1 ^
1#
#7000
0#
#7500
b1 1
b1 H
b1 V
14
b1 0
b1 I
b1 W
b0 &
b0 M
b0 `
0!
b1 7
b1 L
b1 _
1G
1F
b100100100000001 -
b100100100000001 E
b100100100000001 U
b110 B
b110 +
b110 T
b110 [
1#
#8000
0#
#8500
b10 Z
b10 N
b10 "
b10 (
b10 S
b10 a
b10 /
b10 =
b10 Q
b10 A
b0 ,
b0 >
b0 J
1!
b10 &
b10 M
b10 `
04
b0 1
b0 H
b0 V
b0 0
b0 I
b0 W
b1 7
b1 L
b1 _
1G
1F
b101000000001 -
b101000000001 E
b101000000001 U
b111 B
b111 +
b111 T
b111 [
bx .
bx O
bx R
1#
#9000
0#
#9500
b1 Z
b1 .
b1 O
b1 R
b1 N
b1 "
b1 (
b1 S
b1 a
b1 /
b1 =
b1 Q
b1 A
b0 &
b0 M
b0 `
1!
b10 ,
b10 >
b10 J
b1 7
b1 L
b1 _
1G
1F
b100000100001 -
b100000100001 E
b100000100001 U
b1000 B
b1000 +
b1000 T
b1000 [
1#
#10000
0#
#10500
b10 Z
bx .
bx O
bx R
b10 N
b10 "
b10 (
b10 S
b10 a
b10 /
b10 =
b10 Q
b10 A
b10 8
b10 ?
b10 Y
b10 9
b10 P
b10 X
b10 ^
b1 &
b1 M
b1 `
1!
b10 7
b10 L
b10 _
1G
1F
b100100100010 -
b100100100010 E
b100100100010 U
b1001 B
b1001 +
b1001 T
b1001 [
1#
#11000
0#
#11500
b1 0
b1 I
b1 W
b10 1
b10 H
b10 V
14
b0 &
b0 M
b0 `
0!
b10 9
b10 P
b10 X
b10 ^
b1 7
b1 L
b1 _
1G
1F
b100100100000010 -
b100100100000010 E
b100100100000010 U
b1010 B
b1010 +
b1010 T
b1010 [
1#
#12000
0#
#12500
b11 Z
b11 N
b11 "
b11 (
b11 S
b11 a
b11 /
b11 =
b11 Q
b11 A
b0 ,
b0 >
b0 J
1!
b10 &
b10 M
b10 `
04
b0 1
b0 H
b0 V
b0 0
b0 I
b0 W
b10 9
b10 P
b10 X
b10 ^
b1 7
b1 L
b1 _
1G
1F
b101000000001 -
b101000000001 E
b101000000001 U
b1011 B
b1011 +
b1011 T
b1011 [
bx .
bx O
bx R
1#
#13000
0#
#13500
b10 Z
b10 .
b10 O
b10 R
b10 N
b10 "
b10 (
b10 S
b10 a
b10 /
b10 =
b10 Q
b10 A
b0 &
b0 M
b0 `
1!
b10 ,
b10 >
b10 J
b10 9
b10 P
b10 X
b10 ^
b1 7
b1 L
b1 _
1G
1F
b100000100001 -
b100000100001 E
b100000100001 U
b1100 B
b1100 +
b1100 T
b1100 [
1#
#14000
0#
#14500
b11 Z
bx .
bx O
bx R
b11 N
b11 "
b11 (
b11 S
b11 a
b11 /
b11 =
b11 Q
b11 A
b11 8
b11 ?
b11 Y
b11 9
b11 P
b11 X
b11 ^
b1 &
b1 M
b1 `
1!
b10 7
b10 L
b10 _
1G
1F
b100100100010 -
b100100100010 E
b100100100010 U
b10 ;
b10 @
b10 D
b1101 B
b1101 +
b1101 T
b1101 [
b10 <
b10 C
b10 \
1#
#15000
0#
#15500
b1 0
b1 I
b1 W
b11 1
b11 H
b11 V
14
b0 &
b0 M
b0 `
0!
b11 9
b11 P
b11 X
b11 ^
b1 7
b1 L
b1 _
1G
1F
b100100100000011 -
b100100100000011 E
b100100100000011 U
b1110 B
b1110 +
b1110 T
b1110 [
1#
#16000
0#
#16500
b101 Z
b101 N
b101 "
b101 (
b101 S
b101 a
b101 /
b101 =
b101 Q
b101 A
b0 ,
b0 >
b0 J
1!
b10 &
b10 M
b10 `
04
b0 1
b0 H
b0 V
b0 0
b0 I
b0 W
b11 9
b11 P
b11 X
b11 ^
b1 7
b1 L
b1 _
1G
1F
b101000000001 -
b101000000001 E
b101000000001 U
b1111 B
b1111 +
b1111 T
b1111 [
bx .
bx O
bx R
1#
#17000
0#
#17500
b11 Z
b11 .
b11 O
b11 R
b11 N
b11 "
b11 (
b11 S
b11 a
b11 /
b11 =
b11 Q
b11 A
b0 &
b0 M
b0 `
1!
b10 ,
b10 >
b10 J
b11 9
b11 P
b11 X
b11 ^
b1 7
b1 L
b1 _
1G
1F
b100000100001 -
b100000100001 E
b100000100001 U
b10000 B
b10000 +
b10000 T
b10000 [
1#
#18000
0#
#18500
b101 Z
bx .
bx O
bx R
b101 N
b101 "
b101 (
b101 S
b101 a
b101 /
b101 =
b101 Q
b101 A
b101 8
b101 ?
b101 Y
b101 9
b101 P
b101 X
b101 ^
b1 &
b1 M
b1 `
1!
b10 7
b10 L
b10 _
1G
1F
b100100100010 -
b100100100010 E
b100100100010 U
b11 ;
b11 @
b11 D
b10001 B
b10001 +
b10001 T
b10001 [
b11 <
b11 C
b11 \
1#
#19000
0#
#19500
b100 Z
b100 N
b100 "
b100 (
b100 S
b100 a
b100 /
b100 =
b100 Q
b100 A
b100 8
b100 ?
b100 Y
b1 0
b1 I
b1 W
b100 1
b100 H
b100 V
14
b0 &
b0 M
b0 `
0!
b101 9
b101 P
b101 X
b101 ^
b1 7
b1 L
b1 _
1G
1F
b100100100000100 -
b100100100000100 E
b100100100000100 U
b10010 B
b10010 +
b10010 T
b10010 [
1#
#20000
0#
#20500
b1000 Z
b1000 N
b1000 "
b1000 (
b1000 S
b1000 a
b1000 /
b1000 =
b1000 Q
b1000 A
b101 8
b101 ?
b101 Y
b0 ,
b0 >
b0 J
1!
b10 &
b10 M
b10 `
04
b0 1
b0 H
b0 V
b0 0
b0 I
b0 W
b101 9
b101 P
b101 X
b101 ^
b1 7
b1 L
b1 _
1G
1F
b101000000001 -
b101000000001 E
b101000000001 U
b10011 B
b10011 +
b10011 T
b10011 [
bx .
bx O
bx R
1#
#21000
0#
#21500
b101 Z
b101 N
b101 "
b101 (
b101 S
b101 a
b101 /
b101 =
b101 Q
b101 A
b0 &
b0 M
b0 `
1!
b10 ,
b10 >
b10 J
b101 9
b101 P
b101 X
b101 ^
b1 7
b1 L
b1 _
1G
1F
b100000100001 -
b100000100001 E
b100000100001 U
b10100 B
b10100 +
b10100 T
b10100 [
1#
#22000
0#
#22500
b1000 Z
b1000 N
b1000 "
b1000 (
b1000 S
b1000 a
b1000 /
b1000 =
b1000 Q
b1000 A
b1000 8
b1000 ?
b1000 Y
b1000 9
b1000 P
b1000 X
b1000 ^
b1 &
b1 M
b1 `
1!
b10 7
b10 L
b10 _
1G
1F
b100100100010 -
b100100100010 E
b100100100010 U
b101 ;
b101 @
b101 D
b10101 B
b10101 +
b10101 T
b10101 [
b101 <
b101 C
b101 \
1#
#23000
0#
#23500
b101 Z
b101 N
b101 "
b101 (
b101 S
b101 a
b101 /
b101 =
b101 Q
b101 A
b101 8
b101 ?
b101 Y
b1 0
b1 I
b1 W
b101 1
b101 H
b101 V
14
b0 &
b0 M
b0 `
0!
b1000 9
b1000 P
b1000 X
b1000 ^
b1 7
b1 L
b1 _
1G
1F
b100100100000101 -
b100100100000101 E
b100100100000101 U
b10110 B
b10110 +
b10110 T
b10110 [
1#
#24000
0#
#24500
b1101 Z
b1101 N
b1101 "
b1101 (
b1101 S
b1101 a
b1101 /
b1101 =
b1101 Q
b1101 A
b1000 8
b1000 ?
b1000 Y
b0 ,
b0 >
b0 J
1!
b10 &
b10 M
b10 `
04
b0 1
b0 H
b0 V
b0 0
b0 I
b0 W
b1000 9
b1000 P
b1000 X
b1000 ^
b1 7
b1 L
b1 _
1G
1F
b101000000001 -
b101000000001 E
b101000000001 U
b10111 B
b10111 +
b10111 T
b10111 [
bx .
bx O
bx R
1#
#25000
0#
#25500
b1000 Z
b1000 N
b1000 "
b1000 (
b1000 S
b1000 a
b1000 /
b1000 =
b1000 Q
b1000 A
b0 &
b0 M
b0 `
1!
b10 ,
b10 >
b10 J
b1000 9
b1000 P
b1000 X
b1000 ^
b1 7
b1 L
b1 _
1G
1F
b100000100001 -
b100000100001 E
b100000100001 U
b11000 B
b11000 +
b11000 T
b11000 [
1#
#26000
0#
#26500
b1101 Z
b1101 N
b1101 "
b1101 (
b1101 S
b1101 a
b1101 /
b1101 =
b1101 Q
b1101 A
b1101 8
b1101 ?
b1101 Y
b1101 9
b1101 P
b1101 X
b1101 ^
b1 &
b1 M
b1 `
1!
b10 7
b10 L
b10 _
1G
1F
b100100100010 -
b100100100010 E
b100100100010 U
b1000 ;
b1000 @
b1000 D
b11001 B
b11001 +
b11001 T
b11001 [
b1000 <
b1000 C
b1000 \
1#
#27000
0#
#27500
b110 Z
b110 N
b110 "
b110 (
b110 S
b110 a
b110 /
b110 =
b110 Q
b110 A
b110 8
b110 ?
b110 Y
b1 0
b1 I
b1 W
b110 1
b110 H
b110 V
14
b0 &
b0 M
b0 `
0!
b1101 9
b1101 P
b1101 X
b1101 ^
b1 7
b1 L
b1 _
1G
1F
b100100100000110 -
b100100100000110 E
b100100100000110 U
b11010 B
b11010 +
b11010 T
b11010 [
1#
#28000
0#
#28500
b10101 Z
b10101 N
b10101 "
b10101 (
b10101 S
b10101 a
b10101 /
b10101 =
b10101 Q
b10101 A
b1101 8
b1101 ?
b1101 Y
b0 ,
b0 >
b0 J
1!
b10 &
b10 M
b10 `
04
b0 1
b0 H
b0 V
b0 0
b0 I
b0 W
b1101 9
b1101 P
b1101 X
b1101 ^
b1 7
b1 L
b1 _
1G
1F
b101000000001 -
b101000000001 E
b101000000001 U
b11011 B
b11011 +
b11011 T
b11011 [
bx .
bx O
bx R
1#
#29000
0#
#29500
b1101 Z
b1101 N
b1101 "
b1101 (
b1101 S
b1101 a
b1101 /
b1101 =
b1101 Q
b1101 A
b0 &
b0 M
b0 `
1!
b10 ,
b10 >
b10 J
b1101 9
b1101 P
b1101 X
b1101 ^
b1 7
b1 L
b1 _
1G
1F
b100000100001 -
b100000100001 E
b100000100001 U
b11100 B
b11100 +
b11100 T
b11100 [
1#
#30000
0#
#30500
b10101 Z
b10101 N
b10101 "
b10101 (
b10101 S
b10101 a
b10101 /
b10101 =
b10101 Q
b10101 A
b10101 8
b10101 ?
b10101 Y
b10101 9
b10101 P
b10101 X
b10101 ^
b1 &
b1 M
b1 `
1!
b10 7
b10 L
b10 _
1G
1F
b100100100010 -
b100100100010 E
b100100100010 U
b1101 ;
b1101 @
b1101 D
b11101 B
b11101 +
b11101 T
b11101 [
b1101 <
b1101 C
b1101 \
1#
#31000
0#
#31500
b111 Z
b111 N
b111 "
b111 (
b111 S
b111 a
b111 /
b111 =
b111 Q
b111 A
b111 8
b111 ?
b111 Y
b1 0
b1 I
b1 W
b111 1
b111 H
b111 V
14
b0 &
b0 M
b0 `
0!
b10101 9
b10101 P
b10101 X
b10101 ^
b1 7
b1 L
b1 _
1G
1F
b100100100000111 -
b100100100000111 E
b100100100000111 U
b11110 B
b11110 +
b11110 T
b11110 [
1#
#32000
0#
#32500
b100010 Z
b100010 N
b100010 "
b100010 (
b100010 S
b100010 a
b100010 /
b100010 =
b100010 Q
b100010 A
b10101 8
b10101 ?
b10101 Y
b0 ,
b0 >
b0 J
1!
b10 &
b10 M
b10 `
04
b0 1
b0 H
b0 V
b0 0
b0 I
b0 W
b10101 9
b10101 P
b10101 X
b10101 ^
b1 7
b1 L
b1 _
1G
1F
b101000000001 -
b101000000001 E
b101000000001 U
b11111 B
b11111 +
b11111 T
b11111 [
bx .
bx O
bx R
1#
#33000
0#
#33500
b10101 Z
b10101 N
b10101 "
b10101 (
b10101 S
b10101 a
b10101 /
b10101 =
b10101 Q
b10101 A
b0 &
b0 M
b0 `
1!
b10 ,
b10 >
b10 J
b10101 9
b10101 P
b10101 X
b10101 ^
b1 7
b1 L
b1 _
1G
1F
b100000100001 -
b100000100001 E
b100000100001 U
b100000 B
b100000 +
b100000 T
b100000 [
1#
#34000
0#
#34500
b100010 Z
b100010 N
b100010 "
b100010 (
b100010 S
b100010 a
b100010 /
b100010 =
b100010 Q
b100010 A
b100010 8
b100010 ?
b100010 Y
b100010 9
b100010 P
b100010 X
b100010 ^
b1 &
b1 M
b1 `
1!
b10 7
b10 L
b10 _
1G
1F
b100100100010 -
b100100100010 E
b100100100010 U
b10101 ;
b10101 @
b10101 D
b100001 B
b100001 +
b100001 T
b100001 [
b10101 <
b10101 C
b10101 \
1#
#35000
0#
#35500
b1000 Z
b1000 N
b1000 "
b1000 (
b1000 S
b1000 a
b1000 /
b1000 =
b1000 Q
b1000 A
b1000 8
b1000 ?
b1000 Y
b1 0
b1 I
b1 W
b1000 1
b1000 H
b1000 V
14
b0 &
b0 M
b0 `
0!
b100010 9
b100010 P
b100010 X
b100010 ^
b1 7
b1 L
b1 _
1G
1F
b100100100001000 -
b100100100001000 E
b100100100001000 U
b100010 B
b100010 +
b100010 T
b100010 [
1#
#36000
0#
#36500
b0 N
b0 /
b0 =
b0 Q
b1 Z
b0 A
b1 "
b1 (
b1 S
b1 a
b0 8
b0 ?
b0 Y
15
1!
04
b0 1
b0 H
b0 V
b1 0
b1 I
b1 W
b10101 9
b10101 P
b10101 X
b10101 ^
b0 7
b0 L
b0 _
1G
1F
b1001000000000000 -
b1001000000000000 E
b1001000000000000 U
b100011 B
b100011 +
b100011 T
b100011 [
b1 .
b1 O
b1 R
1#
#37000
0#
#37500
b1 N
b1 /
b1 =
b1 Q
b1 A
b1 8
b1 ?
b1 Y
b1 1
b1 H
b1 V
15
b1 0
b1 I
b1 W
1!
1G
1F
b1 ;
b1 @
b1 D
b1001000000000001 -
b1001000000000001 E
b1001000000000001 U
b1 <
b1 C
b1 \
b1 9
b1 P
b1 X
b1 ^
1%
b100100 B
b100100 +
b100100 T
b100100 [
1#
#38000
0#
#38500
b10 Z
b10 "
b10 (
b10 S
b10 a
b10 .
b10 O
b10 R
b10 N
b10 /
b10 =
b10 Q
b10 A
b10 8
b10 ?
b10 Y
b1001000000000010 -
b1001000000000010 E
b1001000000000010 U
15
b10 1
b10 H
b10 V
b1 0
b1 I
b1 W
1!
1G
1F
b100101 B
b100101 +
b100101 T
b100101 [
0%
1#
#39000
0#
#39500
b11 Z
b11 "
b11 (
b11 S
b11 a
b11 .
b11 O
b11 R
b11 N
b11 /
b11 =
b11 Q
b11 A
b11 8
b11 ?
b11 Y
15
b11 1
b11 H
b11 V
b1 0
b1 I
b1 W
1!
1G
1F
b10 ;
b10 @
b10 D
b1001000000000011 -
b1001000000000011 E
b1001000000000011 U
b10 <
b10 C
b10 \
b10 9
b10 P
b10 X
b10 ^
b100110 B
b100110 +
b100110 T
b100110 [
1#
#40000
0#
#40500
b101 Z
b101 "
b101 (
b101 S
b101 a
b101 .
b101 O
b101 R
b100 N
b100 /
b100 =
b100 Q
b100 A
b100 8
b100 ?
b100 Y
15
b100 1
b100 H
b100 V
b1 0
b1 I
b1 W
1!
1G
1F
b1001000000000100 -
b1001000000000100 E
b1001000000000100 U
b11 ;
b11 @
b11 D
b100111 B
b100111 +
b100111 T
b100111 [
b11 <
b11 C
b11 \
b11 9
b11 P
b11 X
b11 ^
1#
#41000
0#
#41500
b1000 Z
b1000 "
b1000 (
b1000 S
b1000 a
b1000 .
b1000 O
b1000 R
b101 N
b101 /
b101 =
b101 Q
b101 A
b101 8
b101 ?
b101 Y
15
b101 1
b101 H
b101 V
b1 0
b1 I
b1 W
1!
1G
1F
b101 ;
b101 @
b101 D
b1001000000000101 -
b1001000000000101 E
b1001000000000101 U
b101 <
b101 C
b101 \
b101 9
b101 P
b101 X
b101 ^
b101000 B
b101000 +
b101000 T
b101000 [
1#
#42000
0#
#42500
b1101 Z
b1101 "
b1101 (
b1101 S
b1101 a
b1101 .
b1101 O
b1101 R
b110 N
b110 /
b110 =
b110 Q
b110 A
b110 8
b110 ?
b110 Y
15
b110 1
b110 H
b110 V
b1 0
b1 I
b1 W
1!
1G
1F
b1001000000000110 -
b1001000000000110 E
b1001000000000110 U
b1000 ;
b1000 @
b1000 D
b101001 B
b101001 +
b101001 T
b101001 [
b1000 <
b1000 C
b1000 \
b1000 9
b1000 P
b1000 X
b1000 ^
1#
#43000
0#
#43500
b10101 Z
b10101 "
b10101 (
b10101 S
b10101 a
b10101 .
b10101 O
b10101 R
b111 N
b111 /
b111 =
b111 Q
b111 A
b111 8
b111 ?
b111 Y
15
b111 1
b111 H
b111 V
b1 0
b1 I
b1 W
1!
1G
1F
b1101 ;
b1101 @
b1101 D
b1001000000000111 -
b1001000000000111 E
b1001000000000111 U
b1101 <
b1101 C
b1101 \
b1101 9
b1101 P
b1101 X
b1101 ^
b101010 B
b101010 +
b101010 T
b101010 [
1#
#44000
0#
#44500
b100010 Z
b100010 "
b100010 (
b100010 S
b100010 a
b100010 .
b100010 O
b100010 R
b1000 N
b1000 /
b1000 =
b1000 Q
b1000 A
b1000 8
b1000 ?
b1000 Y
15
b1000 1
b1000 H
b1000 V
b1 0
b1 I
b1 W
1!
1G
1F
b1001000000001000 -
b1001000000001000 E
b1001000000001000 U
b10101 ;
b10101 @
b10101 D
b101011 B
b101011 +
b101011 T
b101011 [
b10101 <
b10101 C
b10101 \
b10101 9
b10101 P
b10101 X
b10101 ^
1#
#45000
0#
#45500
b100010 ;
b100010 @
b100010 D
b100010 <
b100010 C
b100010 \
b100010 9
b100010 P
b100010 X
b100010 ^
b101100 B
b101100 +
b101100 T
b101100 [
1#
#46000
0#
#46500
b101101 B
b101101 +
b101101 T
b101101 [
1#
#47000
0#
#47500
b101110 B
b101110 +
b101110 T
b101110 [
1#
#48000
0#
#48500
b101111 B
b101111 +
b101111 T
b101111 [
1#
#49000
0#
#49500
b110000 B
b110000 +
b110000 T
b110000 [
1#
#50000
0#
#50500
b110001 B
b110001 +
b110001 T
b110001 [
1#
#51000
0#
#51500
b110010 B
b110010 +
b110010 T
b110010 [
1#
#52000
0#
#52500
b110011 B
b110011 +
b110011 T
b110011 [
1#
#53000
0#
#53500
b110100 B
b110100 +
b110100 T
b110100 [
1#
#54000
0#
#54500
b110101 B
b110101 +
b110101 T
b110101 [
1#
#55000
0#
#55500
b110110 B
b110110 +
b110110 T
b110110 [
1#
#56000
0#
#56500
b110111 B
b110111 +
b110111 T
b110111 [
1#
#57000
0#
#57500
b111000 B
b111000 +
b111000 T
b111000 [
1#
#58000
0#
#58500
b111001 B
b111001 +
b111001 T
b111001 [
1#
#59000
0#
#59500
b111010 B
b111010 +
b111010 T
b111010 [
1#
#60000
0#
#60500
b111011 B
b111011 +
b111011 T
b111011 [
1#
#61000
0#
#61500
b111100 B
b111100 +
b111100 T
b111100 [
1#
#62000
0#
#62500
b111101 B
b111101 +
b111101 T
b111101 [
1#
#63000
0#
#63500
b111110 B
b111110 +
b111110 T
b111110 [
1#
#64000
0#
#64500
b111111 B
b111111 +
b111111 T
b111111 [
1#
#65000
0#
#65500
bx .
bx O
bx R
b100010 N
b100010 /
b100010 =
b100010 Q
b100010 Z
b100010 A
b100010 "
b100010 (
b100010 S
b100010 a
b100010 8
b100010 ?
b100010 Y
13
05
b0 1
b0 H
b0 V
b0 0
b0 I
b0 W
0!
1G
1F
b0 -
b0 E
b0 U
b0 B
b0 +
b0 T
b0 [
1#
#66000
0#
#66500
b1 Z
b1 .
b1 O
b1 R
b1 N
b1 "
b1 (
b1 S
b1 a
b1 /
b1 =
b1 Q
b1 A
b1 8
b1 ?
b1 Y
b10 0
b10 I
b10 W
b1 1
b1 H
b1 V
1!
03
1G
1F
b1000001000000001 -
b1000001000000001 E
b1000001000000001 U
b1 B
b1 +
b1 T
b1 [
1#
#67000
0#
#67500
b0 1
b0 H
b0 V
b11 0
b11 I
b11 W
1!
1G
1F
b1 ;
b1 @
b1 D
b1000001100000000 -
b1000001100000000 E
b1000001100000000 U
b1 <
b1 C
b1 \
b1 9
b1 P
b1 X
b1 ^
b10 B
b10 +
b10 T
b10 [
1#
#68000
0#
#68500
b0 Z
b0 N
b0 "
b0 (
b0 S
b0 a
b0 /
b0 =
b0 Q
b0 A
b0 8
b0 ?
b0 Y
14
b1 0
b1 I
b1 W
0!
1G
1F
b100100000000000 -
b100100000000000 E
b100100000000000 U
b11 B
b11 +
b11 T
b11 [
1#
#69000
0#
#69500
b1 Z
b1 N
b1 "
b1 (
b1 S
b1 a
b1 /
b1 =
b1 Q
b1 A
b1 8
b1 ?
b1 Y
b1 1
b1 H
b1 V
b100010 9
b100010 P
b100010 X
b100010 ^
b1 7
b1 L
b1 _
1!
b1 &
b1 M
b1 `
04
b10 0
b10 I
b10 W
1G
1F
b1000011000000001 -
b1000011000000001 E
b1000011000000001 U
1%
b100 B
b100 +
b100 T
b100 [
1#
#70000
0#
#70500
b1000011100000000 -
b1000011100000000 E
b1000011100000000 U
b0 1
b0 H
b0 V
b11 0
b11 I
b11 W
b1 &
b1 M
b1 `
1!
b1 7
b1 L
b1 _
1G
1F
b101 B
b101 +
b101 T
b101 [
0%
b1 9
b1 P
b1 X
b1 ^
1#
#71000
0#
#71500
b1 1
b1 H
b1 V
14
b1 0
b1 I
b1 W
b0 &
b0 M
b0 `
0!
b1 7
b1 L
b1 _
1G
1F
b100100100000001 -
b100100100000001 E
b100100100000001 U
b110 B
b110 +
b110 T
b110 [
1#
#72000
0#
#72500
b10 Z
b10 .
b10 O
b10 R
b10 N
b10 "
b10 (
b10 S
b10 a
b10 /
b10 =
b10 Q
b10 A
b0 ,
b0 >
b0 J
1!
b10 &
b10 M
b10 `
04
b0 1
b0 H
b0 V
b0 0
b0 I
b0 W
b1 7
b1 L
b1 _
1G
1F
b101000000001 -
b101000000001 E
b101000000001 U
b111 B
b111 +
b111 T
b111 [
1#
#73000
0#
#73500
b1 Z
b1 .
b1 O
b1 R
b1 N
b1 "
b1 (
b1 S
b1 a
b1 /
b1 =
b1 Q
b1 A
b0 &
b0 M
b0 `
1!
b10 ,
b10 >
b10 J
b1 7
b1 L
b1 _
1G
1F
b100000100001 -
b100000100001 E
b100000100001 U
b1000 B
b1000 +
b1000 T
b1000 [
1#
#74000
0#
#74500
b10 Z
b10 .
b10 O
b10 R
b10 N
b10 "
b10 (
b10 S
b10 a
b10 /
b10 =
b10 Q
b10 A
b10 8
b10 ?
b10 Y
b10 9
b10 P
b10 X
b10 ^
b1 &
b1 M
b1 `
1!
b10 7
b10 L
b10 _
1G
1F
b100100100010 -
b100100100010 E
b100100100010 U
b1001 B
b1001 +
b1001 T
b1001 [
1#
#75000
0#
#75500
b1 0
b1 I
b1 W
b10 1
b10 H
b10 V
14
b0 &
b0 M
b0 `
0!
b10 9
b10 P
b10 X
b10 ^
b1 7
b1 L
b1 _
1G
1F
b100100100000010 -
b100100100000010 E
b100100100000010 U
b1010 B
b1010 +
b1010 T
b1010 [
1#
#76000
0#
#76500
b11 Z
b11 .
b11 O
b11 R
b11 N
b11 "
b11 (
b11 S
b11 a
b11 /
b11 =
b11 Q
b11 A
b0 ,
b0 >
b0 J
1!
b10 &
b10 M
b10 `
04
b0 1
b0 H
b0 V
b0 0
b0 I
b0 W
b10 9
b10 P
b10 X
b10 ^
b1 7
b1 L
b1 _
1G
1F
b101000000001 -
b101000000001 E
b101000000001 U
b1011 B
b1011 +
b1011 T
b1011 [
1#
#77000
0#
#77500
b10 Z
b10 .
b10 O
b10 R
b10 N
b10 "
b10 (
b10 S
b10 a
b10 /
b10 =
b10 Q
b10 A
b0 &
b0 M
b0 `
1!
b10 ,
b10 >
b10 J
b10 9
b10 P
b10 X
b10 ^
b1 7
b1 L
b1 _
1G
1F
b100000100001 -
b100000100001 E
b100000100001 U
b1100 B
b1100 +
b1100 T
b1100 [
1#
#78000
0#
