9_report/pu.vcd
$date
	Fri Jun 16 09:19:25 2023
$end
$version
	Icarus Verilog
$end
$timescale
	10ps
$end
$scope module test $end
$var wire 1 ! we $end
$var wire 16 " wd [15:0] $end
$var reg 1 # clk $end
$var reg 1 $ rst $end
$scope module pu $end
$var wire 1 # clk $end
$var wire 1 $ rst $end
$var wire 1 % ze $end
$var wire 1 ! we $end
$var wire 2 & wad [1:0] $end
$var wire 1 ' sg $end
$var wire 16 ( rwd [15:0] $end
$var wire 1 ) pcwe $end
$var wire 1 * pcs $end
$var wire 6 + pca [5:0] $end
$var wire 3 , op [2:0] $end
$var wire 16 - o [15:0] $end
$var wire 16 . mrd [15:0] $end
$var wire 16 / lp [15:0] $end
$var wire 2 0 liop [1:0] $end
$var wire 8 1 iv [7:0] $end
$var wire 1 2 h $end
$var wire 1 3 dstb $end
$var wire 1 4 dmwe $end
$var wire 1 5 dms $end
$var wire 1 6 ca $end
$var wire 2 7 brad [1:0] $end
$var wire 16 8 bo [15:0] $end
$var wire 16 9 b [15:0] $end
$var wire 2 : arad [1:0] $end
$var wire 16 ; ao [15:0] $end
$var wire 16 < a [15:0] $end
$scope module alu $end
$var wire 1 # clk $end
$var wire 1 $ rst $end
$var wire 16 = rr [15:0] $end
$var wire 3 > op [2:0] $end
$var wire 1 3 dstb $end
$var wire 16 ? b [15:0] $end
$var wire 16 @ a [15:0] $end
$var reg 1 6 ca $end
$var reg 17 A r [16:0] $end
$var reg 1 ' sg $end
$var reg 1 % ze $end
$upscope $end
$scope module asel $end
$var wire 16 B b [15:0] $end
$var wire 1 * s $end
$var wire 16 C a [15:0] $end
$var reg 16 D o [15:0] $end
$upscope $end
$scope module dec $end
$var wire 1 6 ca $end
$var wire 1 ' sg $end
$var wire 1 % ze $end
$var wire 16 E o [15:0] $end
$var reg 1 5 dms $end
$var reg 1 4 dmwe $end
$var reg 1 3 dstb $end
$var reg 1 F f1 $end
$var reg 1 G f2 $end
$var reg 1 2 h $end
$var reg 8 H iv [7:0] $end
$var reg 2 I liop [1:0] $end
$var reg 3 J op [2:0] $end
$var reg 1 * pcs $end
$var reg 1 ) pcwe $end
$var reg 2 K ra [1:0] $end
$var reg 2 L rb [1:0] $end
$var reg 2 M wad [1:0] $end
$var reg 1 ! we $end
$upscope $end
$scope module dmem $end
$var wire 8 N ad [7:0] $end
$var wire 1 # clk $end
$var wire 16 O rd [15:0] $end
$var wire 1 4 we $end
$var wire 16 P wd [15:0] $end
$upscope $end
$scope module dsel $end
$var wire 16 Q a [15:0] $end
$var wire 16 R b [15:0] $end
$var wire 1 5 s $end
$var reg 16 S o [15:0] $end
$upscope $end
$scope module imem $end
$var wire 6 T pc [5:0] $end
$var reg 16 U o [15:0] $end
$upscope $end
$scope module lidx $end
$var wire 8 V iv [7:0] $end
$var wire 2 W op [1:0] $end
$var wire 16 X i [15:0] $end
$var reg 16 Y o [15:0] $end
$upscope $end
$scope module pc $end
$var wire 1 # clk $end
$var wire 1 2 halt $end
$var wire 1 $ rst $end
$var wire 6 Z rwd [5:0] $end
$var wire 1 ) we $end
$var reg 6 [ pc [5:0] $end
$upscope $end
$scope module rega $end
$var wire 16 \ a [15:0] $end
$var wire 2 ] arad [1:0] $end
$var wire 16 ^ b [15:0] $end
$var wire 2 _ brad [1:0] $end
$var wire 1 # clk $end
$var wire 1 $ rst $end
$var wire 2 ` wad [1:0] $end
$var wire 16 a wd [15:0] $end
$var wire 1 ! we $end
$upscope $end
$upscope $end
$upscope $end
$enddefinitions $end
#0
$dumpvars
b0 a
b0 `
b0 _
b0 ^
b0 ]
b0 \
b0 [
b0 Z
b0 Y
b0 X
b0 W
b0 V
b0 U
b0 T
b0 S
bx R
b0 Q
b0 P
bx O
b0 N
b0 M
b0 L
b0 K
b10 J
b0 I
b0 H
1G
1F
b0 E
b0 D
b0 C
b0 B
b0 A
b0 @
b0 ?
b10 >
b0 =
b0 <
b0 ;
b0 :
b0 9
b0 8
b0 7
06
05
04
13
02
b0 1
b0 0
b0 /
bx .
b0 -
b10 ,
b0 +
0*
0)
b0 (
0'
b0 &
0%
1$
0#
b0 "
0!
$end
#500
1#
#1000
0#
#1500
1#
#2000
0#
0$
#2500
b1 Z
b1 N
b1 "
b1 (
b1 S
b1 a
b1 /
b1 =
b1 Q
b1 A
b1 8
b1 ?
b1 Y
1!
b10 0
b10 I
b10 W
b1 1
b1 H
b1 V
03
1G
1F
b1000001000000001 -
b1000001000000001 E
b1000001000000001 U
b1 B
b1 +
b1 T
b1 [
1#
#3000
0#
#3500
b0 1
b0 H
b0 V
b11 0
b11 I
b11 W
1!
1G
1F
b1 ;
b1 @
b1 D
b1000001100000000 -
b1000001100000000 E
b1000001100000000 U
b1 <
b1 C
b1 \
b1 9
b1 P
b1 X
b1 ^
b10 B
b10 +
b10 T
b10 [
1#
#4000
0#
#4500
b0 9
b0 P
b0 X
b0 ^
b1 7
b1 L
b1 _
b1 &
b1 M
b1 `
b1 1
b1 H
b1 V
b10 0
b10 I
b10 W
1!
1G
1F
b1000011000000001 -
b1000011000000001 E
b1000011000000001 U
b11 B
b11 +
b11 T
b11 [
1#
#5000
0#
#5500
b0 1
b0 H
b0 V
b11 0
b11 I
b11 W
b1 &
b1 M
b1 `
1!
b1 7
b1 L
b1 _
1G
1F
b1000011100000000 -
b1000011100000000 E
b1000011100000000 U
b1 9
b1 P
b1 X
b1 ^
b100 B
b100 +
b100 T
b100 [
1#
#6000
0#
#6500
b10000 Z
b10000 N
b10000 "
b10000 (
b10000 S
b10000 a
b10000 /
b10000 =
b10000 Q
b10000 A
b10000 8
b10000 ?
b10000 Y
b0 9
b0 P
b0 X
b0 ^
b10000 1
b10000 H
b10000 V
b10 0
b10 I
b10 W
b11 &
b11 M
b11 `
1!
b11 7
b11 L
b11 _
1G
1F
b1000111000010000 -
b1000111000010000 E
b1000111000010000 U
b101 B
b101 +
b101 T
b101 [
1#
#7000
0#
#7500
b0 1
b0 H
b0 V
b11 0
b11 I
b11 W
b11 &
b11 M
b11 `
1!
b11 7
b11 L
b11 _
1G
1F
b1000111100000000 -
b1000111100000000 E
b1000111100000000 U
b10000 9
b10000 P
b10000 X
b10000 ^
b110 B
b110 +
b110 T
b110 [
1#
#8000
0#
#8500
b10 Z
b10 N
b10 "
b10 (
b10 S
b10 a
b10 /
b10 =
b10 Q
b10 A
b1 8
b1 ?
b1 Y
b0 ,
b0 >
b0 J
b0 0
b0 I
b0 W
b10 &
b10 M
b10 `
1!
b1 9
b1 P
b1 X
b1 ^
b1 7
b1 L
b1 _
1G
1F
b101000000001 -
b101000000001 E
b101000000001 U
b111 B
b111 +
b111 T
b111 [
1#
#9000
0#
#9500
b1 Z
b1 N
b1 "
b1 (
b1 S
b1 a
b1 /
b1 =
b1 Q
b1 A
b0 &
b0 M
b0 `
1!
b10 ,
b10 >
b10 J
b1 7
b1 L
b1 _
1G
1F
b100000100001 -
b100000100001 E
b100000100001 U
b1000 B
b1000 +
b1000 T
b1000 [
1#
#10000
0#
#10500
b10 Z
b10 N
b10 "
b10 (
b10 S
b10 a
b10 /
b10 =
b10 Q
b10 A
b10 8
b10 ?
b10 Y
b1 &
b1 M
b1 `
b10 9
b10 P
b10 X
b10 ^
1!
b10 7
b10 L
b10 _
1G
1F
b100100100010 -
b100100100010 E
b100100100010 U
b1001 B
b1001 +
b1001 T
b1001 [
1#
#11000
0#
#11500
b1111 Z
b1111 N
b1111 "
b1111 (
b1111 S
b1111 a
b1111 /
b1111 =
b1111 Q
b1111 A
b10000 ;
b10000 @
b10000 D
b1 8
b1 ?
b1 Y
b1 ,
b1 >
b1 J
b1 0
b1 I
b1 W
b1 1
b1 H
b1 V
b10000 <
b10000 C
b10000 \
b11 :
b11 K
b11 ]
b11 &
b11 M
b11 `
1!
b1 9
b1 P
b1 X
b1 ^
b0 7
b0 L
b0 _
0G
1F
b11111100000001 -
b11111100000001 E
b11111100000001 U
b1010 B
b1010 +
b1010 T
b1010 [
1#
#12000
0#
#12500
b111 Z
b111 N
b100000111 "
b100000111 (
b100000111 S
b100000111 a
b11111100 8
b11111100 ?
b11111100 Y
b100000111 /
b100000111 =
b100000111 Q
1*
1)
b11111100 1
b11111100 H
b11111100 V
b1 0
b1 I
b1 W
b0 &
b0 M
b0 `
0!
b0 ,
b0 >
b0 J
b0 :
b0 K
b0 ]
1G
0F
b100000111 A
b100110111111100 -
b100110111111100 E
b100110111111100 U
b1011 ;
b1011 @
b1011 D
b1011 B
b1011 +
b1011 T
b1011 [
b1 <
b1 C
b1 \
1#
#13000
0#
#13500
b11 Z
b11 N
b11 "
b11 (
b11 S
b11 a
b11 /
b11 =
b11 Q
b10 8
b10 ?
b10 Y
b11 A
b10 &
b10 M
b10 `
1!
b10 9
b10 P
b10 X
b10 ^
b1 7
b1 L
b1 _
0*
0)
b0 1
b0 H
b0 V
b0 0
b0 I
b0 W
b0 ,
b0 >
b0 J
1F
1G
b1 ;
b1 @
b1 D
b101000000001 -
b101000000001 E
b101000000001 U
b111 B
b111 +
b111 T
b111 [
1#
#14000
0#
#14500
b10 Z
b10 N
b10 "
b10 (
b10 S
b10 a
b10 /
b10 =
b10 Q
b10 A
b0 &
b0 M
b0 `
1!
b10 ,
b10 >
b10 J
b10 9
b10 P
b10 X
b10 ^
b1 7
b1 L
b1 _
1G
1F
b100000100001 -
b100000100001 E
b100000100001 U
b1000 B
b1000 +
b1000 T
b1000 [
1#
#15000
0#
#15500
b11 Z
b11 N
b11 "
b11 (
b11 S
b11 a
b11 /
b11 =
b11 Q
b11 A
b11 8
b11 ?
b11 Y
b1 &
b1 M
b1 `
b11 9
b11 P
b11 X
b11 ^
1!
b10 7
b10 L
b10 _
1G
1F
b10 ;
b10 @
b10 D
b100100100010 -
b100100100010 E
b100100100010 U
b10 <
b10 C
b10 \
b1001 B
b1001 +
b1001 T
b1001 [
1#
#16000
0#
#16500
b1110 Z
b1110 N
b1110 "
b1110 (
b1110 S
b1110 a
b1110 /
b1110 =
b1110 Q
b1110 A
b1111 ;
b1111 @
b1111 D
b1 8
b1 ?
b1 Y
b1 ,
b1 >
b1 J
b1 0
b1 I
b1 W
b1 1
b1 H
b1 V
b1111 <
b1111 C
b1111 \
b11 :
b11 K
b11 ]
b11 &
b11 M
b11 `
1!
b10 9
b10 P
b10 X
b10 ^
b0 7
b0 L
b0 _
0G
1F
b11111100000001 -
b11111100000001 E
b11111100000001 U
b1010 B
b1010 +
b1010 T
b1010 [
1#
#17000
0#
#17500
b111 Z
b111 N
b100000111 "
b100000111 (
b100000111 S
b100000111 a
b100000111 /
b100000111 =
b100000111 Q
b11111100 8
b11111100 ?
b11111100 Y
b100000111 A
1*
1)
b11111100 1
b11111100 H
b11111100 V
b1 0
b1 I
b1 W
b0 &
b0 M
b0 `
0!
b0 ,
b0 >
b0 J
b0 :
b0 K
b0 ]
1G
0F
b1011 ;
b1011 @
b1011 D
b100110111111100 -
b100110111111100 E
b100110111111100 U
b10 <
b10 C
b10 \
b1011 B
b1011 +
b1011 T
b1011 [
1#
#18000
0#
#18500
b101 Z
b101 N
b101 "
b101 (
b101 S
b101 a
b101 /
b101 =
b101 Q
b11 8
b11 ?
b11 Y
b101 A
b10 &
b10 M
b10 `
1!
b11 9
b11 P
b11 X
b11 ^
b1 7
b1 L
b1 _
0*
0)
b0 1
b0 H
b0 V
b0 0
b0 I
b0 W
b0 ,
b0 >
b0 J
1F
1G
b10 ;
b10 @
b10 D
b101000000001 -
b101000000001 E
b101000000001 U
b111 B
b111 +
b111 T
b111 [
1#
#19000
0#
#19500
b11 Z
b11 N
b11 "
b11 (
b11 S
b11 a
b11 /
b11 =
b11 Q
b11 A
b0 &
b0 M
b0 `
1!
b10 ,
b10 >
b10 J
b11 9
b11 P
b11 X
b11 ^
b1 7
b1 L
b1 _
1G
1F
b100000100001 -
b100000100001 E
b100000100001 U
b1000 B
b1000 +
b1000 T
b1000 [
1#
#20000
0#
#20500
b101 Z
b101 N
b101 "
b101 (
b101 S
b101 a
b101 /
b101 =
b101 Q
b101 A
b101 8
b101 ?
b101 Y
b1 &
b1 M
b1 `
b101 9
b101 P
b101 X
b101 ^
1!
b10 7
b10 L
b10 _
1G
1F
b100100100010 -
b100100100010 E
b100100100010 U
b11 ;
b11 @
b11 D
b1001 B
b1001 +
b1001 T
b1001 [
b11 <
b11 C
b11 \
1#
#21000
0#
#21500
b1101 Z
b1101 N
b1101 "
b1101 (
b1101 S
b1101 a
b1101 /
b1101 =
b1101 Q
b1101 A
b1110 ;
b1110 @
b1110 D
b1 8
b1 ?
b1 Y
b1 ,
b1 >
b1 J
b1 0
b1 I
b1 W
b1 1
b1 H
b1 V
b1110 <
b1110 C
b1110 \
b11 :
b11 K
b11 ]
b11 &
b11 M
b11 `
1!
b11 9
b11 P
b11 X
b11 ^
b0 7
b0 L
b0 _
0G
1F
b11111100000001 -
b11111100000001 E
b11111100000001 U
b1010 B
b1010 +
b1010 T
b1010 [
1#
#22000
0#
#22500
b111 Z
b111 N
b100000111 "
b100000111 (
b100000111 S
b100000111 a
b11111100 8
b11111100 ?
b11111100 Y
b100000111 /
b100000111 =
b100000111 Q
1*
1)
b11111100 1
b11111100 H
b11111100 V
b1 0
b1 I
b1 W
b0 &
b0 M
b0 `
0!
b0 ,
b0 >
b0 J
b0 :
b0 K
b0 ]
1G
0F
b100000111 A
b100110111111100 -
b100110111111100 E
b100110111111100 U
b1011 ;
b1011 @
b1011 D
b1011 B
b1011 +
b1011 T
b1011 [
b11 <
b11 C
b11 \
1#
#23000
0#
#23500
b1000 Z
b1000 N
b1000 "
b1000 (
b1000 S
b1000 a
b1000 /
b1000 =
b1000 Q
b101 8
b101 ?
b101 Y
b1000 A
b10 &
b10 M
b10 `
1!
b101 9
b101 P
b101 X
b101 ^
b1 7
b1 L
b1 _
0*
0)
b0 1
b0 H
b0 V
b0 0
b0 I
b0 W
b0 ,
b0 >
b0 J
1F
1G
b11 ;
b11 @
b11 D
b101000000001 -
b101000000001 E
b101000000001 U
b111 B
b111 +
b111 T
b111 [
1#
#24000
0#
#24500
b101 Z
b101 N
b101 "
b101 (
b101 S
b101 a
b101 /
b101 =
b101 Q
b101 A
b0 &
b0 M
b0 `
1!
b10 ,
b10 >
b10 J
b101 9
b101 P
b101 X
b101 ^
b1 7
b1 L
b1 _
1G
1F
b100000100001 -
b100000100001 E
b100000100001 U
b1000 B
b1000 +
b1000 T
b1000 [
1#
#25000
0#
#25500
b1000 Z
b1000 N
b1000 "
b1000 (
b1000 S
b1000 a
b1000 /
b1000 =
b1000 Q
b1000 A
b1000 8
b1000 ?
b1000 Y
b1 &
b1 M
b1 `
b1000 9
b1000 P
b1000 X
b1000 ^
1!
b10 7
b10 L
b10 _
1G
1F
b101 ;
b101 @
b101 D
b100100100010 -
b100100100010 E
b100100100010 U
b101 <
b101 C
b101 \
b1001 B
b1001 +
b1001 T
b1001 [
1#
#26000
0#
#26500
b1100 Z
b1100 N
b1100 "
b1100 (
b1100 S
b1100 a
b1100 /
b1100 =
b1100 Q
b1100 A
b1101 ;
b1101 @
b1101 D
b1 8
b1 ?
b1 Y
b1 ,
b1 >
b1 J
b1 0
b1 I
b1 W
b1 1
b1 H
b1 V
b1101 <
b1101 C
b1101 \
b11 :
b11 K
b11 ]
b11 &
b11 M
b11 `
1!
b101 9
b101 P
b101 X
b101 ^
b0 7
b0 L
b0 _
0G
1F
b11111100000001 -
b11111100000001 E
b11111100000001 U
b1010 B
b1010 +
b1010 T
b1010 [
1#
#27000
0#
#27500
b111 Z
b111 N
b100000111 "
b100000111 (
b100000111 S
b100000111 a
b100000111 /
b100000111 =
b100000111 Q
b11111100 8
b11111100 ?
b11111100 Y
b100000111 A
1*
1)
b11111100 1
b11111100 H
b11111100 V
b1 0
b1 I
b1 W
b0 &
b0 M
b0 `
0!
b0 ,
b0 >
b0 J
b0 :
b0 K
b0 ]
1G
0F
b1011 ;
b1011 @
b1011 D
b100110111111100 -
b100110111111100 E
b100110111111100 U
b101 <
b101 C
b101 \
b1011 B
b1011 +
b1011 T
b1011 [
1#
#28000
0#
#28500
b1101 Z
b1101 N
b1101 "
b1101 (
b1101 S
b1101 a
b1101 /
b1101 =
b1101 Q
b1000 8
b1000 ?
b1000 Y
b1101 A
b10 &
b10 M
b10 `
1!
b1000 9
b1000 P
b1000 X
b1000 ^
b1 7
b1 L
b1 _
0*
0)
b0 1
b0 H
b0 V
b0 0
b0 I
b0 W
b0 ,
b0 >
b0 J
1F
1G
b101 ;
b101 @
b101 D
b101000000001 -
b101000000001 E
b101000000001 U
b111 B
b111 +
b111 T
b111 [
1#
#29000
0#
#29500
b1000 Z
b1000 N
b1000 "
b1000 (
b1000 S
b1000 a
b1000 /
b1000 =
b1000 Q
b1000 A
b0 &
b0 M
b0 `
1!
b10 ,
b10 >
b10 J
b1000 9
b1000 P
b1000 X
b1000 ^
b1 7
b1 L
b1 _
1G
1F
b100000100001 -
b100000100001 E
b100000100001 U
b1000 B
b1000 +
b1000 T
b1000 [
1#
#30000
0#
#30500
b1101 Z
b1101 N
b1101 "
b1101 (
b1101 S
b1101 a
b1101 /
b1101 =
b1101 Q
b1101 A
b1101 8
b1101 ?
b1101 Y
b1 &
b1 M
b1 `
b1101 9
b1101 P
b1101 X
b1101 ^
1!
b10 7
b10 L
b10 _
1G
1F
b100100100010 -
b100100100010 E
b100100100010 U
b1000 ;
b1000 @
b1000 D
b1001 B
b1001 +
b1001 T
b1001 [
b1000 <
b1000 C
b1000 \
1#
#31000
0#
#31500
b1011 Z
b1011 N
b1011 "
b1011 (
b1011 S
b1011 a
b1011 /
b1011 =
b1011 Q
b1011 A
b1100 ;
b1100 @
b1100 D
b1 8
b1 ?
b1 Y
b1 ,
b1 >
b1 J
b1 0
b1 I
b1 W
b1 1
b1 H
b1 V
b1100 <
b1100 C
b1100 \
b11 :
b11 K
b11 ]
b11 &
b11 M
b11 `
1!
b1000 9
b1000 P
b1000 X
b1000 ^
b0 7
b0 L
b0 _
0G
1F
b11111100000001 -
b11111100000001 E
b11111100000001 U
b1010 B
b1010 +
b1010 T
b1010 [
1#
#32000
0#
#32500
b111 Z
b111 N
b100000111 "
b100000111 (
b100000111 S
b100000111 a
b11111100 8
b11111100 ?
b11111100 Y
b100000111 /
b100000111 =
b100000111 Q
1*
1)
b11111100 1
b11111100 H
b11111100 V
b1 0
b1 I
b1 W
b0 &
b0 M
b0 `
0!
b0 ,
b0 >
b0 J
b0 :
b0 K
b0 ]
1G
0F
b100000111 A
b100110111111100 -
b100110111111100 E
b100110111111100 U
b1011 ;
b1011 @
b1011 D
b1011 B
b1011 +
b1011 T
b1011 [
b1000 <
b1000 C
b1000 \
1#
#33000
0#
#33500
b10101 Z
b10101 N
b10101 "
b10101 (
b10101 S
b10101 a
b10101 /
b10101 =
b10101 Q
b1101 8
b1101 ?
b1101 Y
b10101 A
b10 &
b10 M
b10 `
1!
b1101 9
b1101 P
b1101 X
b1101 ^
b1 7
b1 L
b1 _
0*
0)
b0 1
b0 H
b0 V
b0 0
b0 I
b0 W
b0 ,
b0 >
b0 J
1F
1G
b1000 ;
b1000 @
b1000 D
b101000000001 -
b101000000001 E
b101000000001 U
b111 B
b111 +
b111 T
b111 [
1#
#34000
0#
#34500
b1101 Z
b1101 N
b1101 "
b1101 (
b1101 S
b1101 a
b1101 /
b1101 =
b1101 Q
b1101 A
b0 &
b0 M
b0 `
1!
b10 ,
b10 >
b10 J
b1101 9
b1101 P
b1101 X
b1101 ^
b1 7
b1 L
b1 _
1G
1F
b100000100001 -
b100000100001 E
b100000100001 U
b1000 B
b1000 +
b1000 T
b1000 [
1#
#35000
0#
#35500
b10101 Z
b10101 N
b10101 "
b10101 (
b10101 S
b10101 a
b10101 /
b10101 =
b10101 Q
b10101 A
b10101 8
b10101 ?
b10101 Y
b1 &
b1 M
b1 `
b10101 9
b10101 P
b10101 X
b10101 ^
1!
b10 7
b10 L
b10 _
1G
1F
b1101 ;
b1101 @
b1101 D
b100100100010 -
b100100100010 E
b100100100010 U
b1101 <
b1101 C
b1101 \
b1001 B
b1001 +
b1001 T
b1001 [
1#
#36000
0#
#36500
b1010 Z
b1010 N
b1010 "
b1010 (
b1010 S
b1010 a
b1010 /
b1010 =
b1010 Q
b1010 A
b1011 ;
b1011 @
b1011 D
b1 8
b1 ?
b1 Y
b1 ,
b1 >
b1 J
b1 0
b1 I
b1 W
b1 1
b1 H
b1 V
b1011 <
b1011 C
b1011 \
b11 :
b11 K
b11 ]
b11 &
b11 M
b11 `
1!
b1101 9
b1101 P
b1101 X
b1101 ^
b0 7
b0 L
b0 _
0G
1F
b11111100000001 -
b11111100000001 E
b11111100000001 U
b1010 B
b1010 +
b1010 T
b1010 [
1#
#37000
0#
#37500
b111 Z
b111 N
b100000111 "
b100000111 (
b100000111 S
b100000111 a
b100000111 /
b100000111 =
b100000111 Q
b11111100 8
b11111100 ?
b11111100 Y
b100000111 A
1*
1)
b11111100 1
b11111100 H
b11111100 V
b1 0
b1 I
b1 W
b0 &
b0 M
b0 `
0!
b0 ,
b0 >
b0 J
b0 :
b0 K
b0 ]
1G
0F
b1011 ;
b1011 @
b1011 D
b100110111111100 -
b100110111111100 E
b100110111111100 U
b1101 <
b1101 C
b1101 \
b1011 B
b1011 +
b1011 T
b1011 [
1#
#38000
0#
#38500
b100010 Z
b100010 N
b100010 "
b100010 (
b100010 S
b100010 a
b100010 /
b100010 =
b100010 Q
b10101 8
b10101 ?
b10101 Y
b100010 A
b10 &
b10 M
b10 `
1!
b10101 9
b10101 P
b10101 X
b10101 ^
b1 7
b1 L
b1 _
0*
0)
b0 1
b0 H
b0 V
b0 0
b0 I
b0 W
b0 ,
b0 >
b0 J
1F
1G
b1101 ;
b1101 @
b1101 D
b101000000001 -
b101000000001 E
b101000000001 U
b111 B
b111 +
b111 T
b111 [
1#
#39000
0#
#39500
b10101 Z
b10101 N
b10101 "
b10101 (
b10101 S
b10101 a
b10101 /
b10101 =
b10101 Q
b10101 A
b0 &
b0 M
b0 `
1!
b10 ,
b10 >
b10 J
b10101 9
b10101 P
b10101 X
b10101 ^
b1 7
b1 L
b1 _
1G
1F
b100000100001 -
b100000100001 E
b100000100001 U
b1000 B
b1000 +
b1000 T
b1000 [
1#
#40000
0#
#40500
b100010 Z
b100010 N
b100010 "
b100010 (
b100010 S
b100010 a
b100010 /
b100010 =
b100010 Q
b100010 A
b100010 8
b100010 ?
b100010 Y
b1 &
b1 M
b1 `
b100010 9
b100010 P
b100010 X
b100010 ^
1!
b10 7
b10 L
b10 _
1G
1F
b100100100010 -
b100100100010 E
b100100100010 U
b10101 ;
b10101 @
b10101 D
b1001 B
b1001 +
b1001 T
b1001 [
b10101 <
b10101 C
b10101 \
1#
#41000
0#
#41500
b1001 Z
b1001 N
b1001 "
b1001 (
b1001 S
b1001 a
b1001 /
b1001 =
b1001 Q
b1001 A
b1010 ;
b1010 @
b1010 D
b1 8
b1 ?
b1 Y
b1 ,
b1 >
b1 J
b1 0
b1 I
b1 W
b1 1
b1 H
b1 V
b1010 <
b1010 C
b1010 \
b11 :
b11 K
b11 ]
b11 &
b11 M
b11 `
1!
b10101 9
b10101 P
b10101 X
b10101 ^
b0 7
b0 L
b0 _
0G
1F
b11111100000001 -
b11111100000001 E
b11111100000001 U
b1010 B
b1010 +
b1010 T
b1010 [
1#
#42000
0#
#42500
b111 Z
b111 N
b100000111 "
b100000111 (
b100000111 S
b100000111 a
b11111100 8
b11111100 ?
b11111100 Y
b100000111 /
b100000111 =
b100000111 Q
1*
1)
b11111100 1
b11111100 H
b11111100 V
b1 0
b1 I
b1 W
b0 &
b0 M
b0 `
0!
b0 ,
b0 >
b0 J
b0 :
b0 K
b0 ]
1G
0F
b100000111 A
b100110111111100 -
b100110111111100 E
b100110111111100 U
b1011 ;
b1011 @
b1011 D
b1011 B
b1011 +
b1011 T
b1011 [
b10101 <
b10101 C
b10101 \
1#
#43000
0#
#43500
b110111 Z
b110111 N
b110111 "
b110111 (
b110111 S
b110111 a
b110111 /
b110111 =
b110111 Q
b100010 8
b100010 ?
b100010 Y
b110111 A
b10 &
b10 M
b10 `
1!
b100010 9
b100010 P
b100010 X
b100010 ^
b1 7
b1 L
b1 _
0*
0)
b0 1
b0 H
b0 V
b0 0
b0 I
b0 W
b0 ,
b0 >
b0 J
1F
1G
b10101 ;
b10101 @
b10101 D
b101000000001 -
b101000000001 E
b101000000001 U
b111 B
b111 +
b111 T
b111 [
1#
#44000
0#
#44500
b100010 Z
b100010 N
b100010 "
b100010 (
b100010 S
b100010 a
b100010 /
b100010 =
b100010 Q
b100010 A
b0 &
b0 M
b0 `
1!
b10 ,
b10 >
b10 J
b100010 9
b100010 P
b100010 X
b100010 ^
b1 7
b1 L
b1 _
1G
1F
b100000100001 -
b100000100001 E
b100000100001 U
b1000 B
b1000 +
b1000 T
b1000 [
1#
#45000
0#
#45500
b110111 Z
b110111 N
b110111 "
b110111 (
b110111 S
b110111 a
b110111 /
b110111 =
b110111 Q
b110111 A
b110111 8
b110111 ?
b110111 Y
b1 &
b1 M
b1 `
b110111 9
b110111 P
b110111 X
b110111 ^
1!
b10 7
b10 L
b10 _
1G
1F
b100010 ;
b100010 @
b100010 D
b100100100010 -
b100100100010 E
b100100100010 U
b100010 <
b100010 C
b100010 \
b1001 B
b1001 +
b1001 T
b1001 [
1#
#46000
0#
#46500
b1000 Z
b1000 N
b1000 "
b1000 (
b1000 S
b1000 a
b1000 /
b1000 =
b1000 Q
b1000 A
b1001 ;
b1001 @
b1001 D
b1 8
b1 ?
b1 Y
b1 ,
b1 >
b1 J
b1 0
b1 I
b1 W
b1 1
b1 H
b1 V
b1001 <
b1001 C
b1001 \
b11 :
b11 K
b11 ]
b11 &
b11 M
b11 `
1!
b100010 9
b100010 P
b100010 X
b100010 ^
b0 7
b0 L
b0 _
0G
1F
b11111100000001 -
b11111100000001 E
b11111100000001 U
b1010 B
b1010 +
b1010 T
b1010 [
1#
#47000
0#
#47500
b111 Z
b111 N
b100000111 "
b100000111 (
b100000111 S
b100000111 a
b100000111 /
b100000111 =
b100000111 Q
b11111100 8
b11111100 ?
b11111100 Y
b100000111 A
1*
1)
b11111100 1
b11111100 H
b11111100 V
b1 0
b1 I
b1 W
b0 &
b0 M
b0 `
0!
b0 ,
b0 >
b0 J
b0 :
b0 K
b0 ]
1G
0F
b1011 ;
b1011 @
b1011 D
b100110111111100 -
b100110111111100 E
b100110111111100 U
b100010 <
b100010 C
b100010 \
b1011 B
b1011 +
b1011 T
b1011 [
1#
#48000
0#
#48500
b11001 Z
b1011001 N
b1011001 "
b1011001 (
b1011001 S
b1011001 a
b1011001 /
b1011001 =
b1011001 Q
b110111 8
b110111 ?
b110111 Y
b1011001 A
b10 &
b10 M
b10 `
1!
b110111 9
b110111 P
b110111 X
b110111 ^
b1 7
b1 L
b1 _
0*
0)
b0 1
b0 H
b0 V
b0 0
b0 I
b0 W
b0 ,
b0 >
b0 J
1F
1G
b100010 ;
b100010 @
b100010 D
b101000000001 -
b101000000001 E
b101000000001 U
b111 B
b111 +
b111 T
b111 [
1#
#49000
0#
#49500
b110111 Z
b110111 N
b110111 "
b110111 (
b110111 S
b110111 a
b110111 /
b110111 =
b110111 Q
b110111 A
b0 &
b0 M
b0 `
1!
b10 ,
b10 >
b10 J
b110111 9
b110111 P
b110111 X
b110111 ^
b1 7
b1 L
b1 _
1G
1F
b100000100001 -
b100000100001 E
b100000100001 U
b1000 B
b1000 +
b1000 T
b1000 [
1#
#50000
0#
#50500
b11001 Z
b1011001 N
b1011001 "
b1011001 (
b1011001 S
b1011001 a
b1011001 /
b1011001 =
b1011001 Q
b1011001 A
b1011001 8
b1011001 ?
b1011001 Y
b1 &
b1 M
b1 `
b1011001 9
b1011001 P
b1011001 X
b1011001 ^
1!
b10 7
b10 L
b10 _
1G
1F
b100100100010 -
b100100100010 E
b100100100010 U
b110111 ;
b110111 @
b110111 D
b1001 B
b1001 +
b1001 T
b1001 [
b110111 <
b110111 C
b110111 \
1#
#51000
0#
#51500
b111 Z
b111 N
b111 "
b111 (
b111 S
b111 a
b111 /
b111 =
b111 Q
b111 A
b1000 ;
b1000 @
b1000 D
b1 8
b1 ?
b1 Y
b1 ,
b1 >
b1 J
b1 0
b1 I
b1 W
b1 1
b1 H
b1 V
b1000 <
b1000 C
b1000 \
b11 :
b11 K
b11 ]
b11 &
b11 M
b11 `
1!
b110111 9
b110111 P
b110111 X
b110111 ^
b0 7
b0 L
b0 _
0G
1F
b11111100000001 -
b11111100000001 E
b11111100000001 U
b1010 B
b1010 +
b1010 T
b1010 [
1#
#52000
0#
#52500
b111 Z
b111 N
b100000111 "
b100000111 (
b100000111 S
b100000111 a
b11111100 8
b11111100 ?
b11111100 Y
b100000111 /
b100000111 =
b100000111 Q
1*
1)
b11111100 1
b11111100 H
b11111100 V
b1 0
b1 I
b1 W
b0 &
b0 M
b0 `
0!
b0 ,
b0 >
b0 J
b0 :
b0 K
b0 ]
1G
0F
b100000111 A
b100110111111100 -
b100110111111100 E
b100110111111100 U
b1011 ;
b1011 @
b1011 D
b1011 B
b1011 +
b1011 T
b1011 [
b110111 <
b110111 C
b110111 \
1#
#53000
0#
